Q2601_C1	Good
Q2601_C2	Good
Q2601_C3	Good
Q2601_C4	Good
Q2601_C5	Good
Q2601_C6	Good
Q2601_C7	Good
Q2601_C8	Good
Q2601_C9	Good
Q2601_C10	Good
Q2601_C11	Good
Q2601_C12	Good
Q2601_C13	Good
Q2601_C14	Good
Q2602_C1	Good
Q2602_C2	Good
Q2603_C1	Good
Q2603_C2	Good
Q2603_C3	Good
Q2603_C4	Good
Q2603_C5	Good
Q2603_C6	Good
Q2604_C1	Good
Q2604_C2	Good
Q2604_C3	Good
Q2604_C4	Good
Q2604_C5	Good
Q2604_C6	Good
Q2604_C7	Good
Q2605_C1	Good
Q2605_C2	Good
Q2605_C3	Good
Q2605_C4	Good
Q2606_C1	Good
Q2606_C2	Good
Q2606_C3	Good
Q2607_C1	Good
Q2607_C2	Good
Q2607_C3	Good
Q2608_C1	Good
Q2608_C2	Good
Q2608_C3	Good
Q2608_C4	Good
Q2608_C5	Good
Q2608_C6	Good
Q2608_C7	Good
Q2609_C1	Good
Q2609_C2	Good
Q2609_C3	Good
Q2609_C4	Good
Q2610_C1	Good
Q2611_C1	Good
Q2611_C2	Good
Q2611_C3	Good
Q2611_C4	Good
Q2612_C1	Good
Q2612_C2	Good
Q2612_C3	Good
Q2612_C4	Good
Q2612_C5	Good
Q2612_C6	Good
Q2612_C7	Good
Q2612_C8	Good
Q2612_C9	Good
Q2612_C10	Good
Q2612_C11	Good
Q2613_C1	Good
Q2613_C2	Good
Q2613_C3	Good
Q2613_C4	Good
Q2613_C5	Good
Q2613_C6	Good
Q2614_C1	Good
Q2614_C2	Good
Q2614_C3	Good
Q2614_C4	Good
Q2615_C1	Good
Q2615_C2	Good
Q2615_C3	Good
Q2615_C4	Good
Q2616_C1	Good
Q2617_C1	Good
Q2617_C2	Good
Q2617_C3	Good
Q2618_C1	Good
Q2618_C2	Good
Q2618_C3	Good
Q2619_C1	Good
Q2619_C2	Good
Q2619_C3	Good
Q2619_C4	Good
Q2620_C1	Good
Q2620_C2	Good
Q2620_C3	Good
Q2620_C4	Good
Q2621_C1	Good
Q2621_C2	Good
Q2621_C3	Good
Q2622_C1	Good
Q2622_C2	Good
Q2622_C3	Good
Q2622_C4	Good
Q2623_C1	Good
Q2623_C2	Good
Q2623_C3	Good
Q2624_C1	Good
Q2624_C2	Good
Q2624_C3	Good
Q2624_C4	Good
Q2624_C5	Good
Q2624_C6	Good
Q2624_C7	Good
Q2624_C8	Good
Q2625_C1	Good
Q2625_C2	Good
Q2626_C1	Good
Q2626_C2	Good
Q2626_C3	Good
Q2627_C1	Good
Q2627_C2	Good
Q2627_C3	Good
Q2627_C4	Good
Q2627_C5	Good
Q2627_C6	Good
Q2627_C7	Good
Q2627_C8	Good
Q2627_C9	Good
Q2628_C1	Good
Q2628_C2	Good
Q2628_C3	Good
Q2628_C4	Good
Q2629_C1	Good
Q2629_C2	Good
Q2630_C1	Good
Q2630_C2	Good
Q2630_C3	Good
Q2630_C4	Good
Q2630_C5	Good
Q2630_C6	Good
Q2630_C7	Good
Q2630_C8	Good
Q2630_C9	Good
Q2631_C1	Good
Q2631_C2	Good
Q2631_C3	Good
Q2631_C4	Good
Q2632_C1	Good
Q2632_C2	Good
Q2632_C3	Good
Q2632_C4	Good
Q2632_C5	Good
Q2633_C1	Good
Q2633_C2	Good
Q2633_C3	Good
Q2633_C4	Good
Q2633_C5	Good
Q2633_C6	Good
Q2633_C7	Good
Q2633_C8	Good
Q2633_C9	Good
Q2634_C1	Good
Q2634_C2	Good
Q2634_C3	Good
Q2634_C4	Good
Q2634_C5	Good
Q2635_C1	Good
Q2635_C2	Good
Q2636_C1	Good
Q2636_C2	Good
Q2636_C3	Good
Q2636_C4	Good
Q2636_C5	Good
Q2636_C6	Good
Q2636_C7	Good
Q2637_C1	Good
Q2637_C2	Good
Q2638_C1	Good
Q2639_C1	Good
Q2639_C2	Good
Q2639_C3	Good
Q2640_C1	Good
Q2640_C2	Good
Q2640_C3	Good
Q2640_C4	Good
Q2641_C1	Good
Q2641_C2	Good
Q2641_C3	Good
Q2641_C4	Good
Q2642_C1	Good
Q2642_C2	Good
Q2642_C3	Good
Q2642_C4	Good
Q2643_C1	Good
Q2643_C2	Good
Q2643_C3	Good
Q2644_C1	Good
Q2644_C2	Good
Q2644_C3	Good
Q2644_C4	Good
Q2645_C1	Good
Q2646_C1	Good
Q2646_C2	Good
Q2646_C3	Good
Q2646_C4	Good
Q2646_C5	Good
Q2646_C6	Good
Q2646_C7	Good
Q2647_C1	Good
Q2647_C2	Good
Q2647_C3	Good
Q2648_C1	Good
Q2648_C2	Good
Q2648_C3	Good
Q2649_C1	Good
Q2649_C2	Good
Q2649_C3	Good
Q2649_C4	Good
Q2649_C5	Good
Q2650_C1	Good
Q2650_C2	Good
Q2650_C3	Good
Q2650_C4	Good
Q2651_C1	Good
Q2652_C1	Good
Q2652_C2	Good
Q2653_C1	Good
Q2653_C2	Good
Q2653_C3	Good
Q2653_C4	Good
Q2653_C5	Good
Q2653_C6	Good
Q2654_C1	Good
Q2654_C2	Good
Q2654_C3	Good
Q2654_C4	Good
Q2654_C5	Good
Q2654_C6	Good
Q2655_C1	Good
Q2655_C2	Good
Q2655_C3	Good
Q2655_C4	Good
Q2655_C5	Good
Q2655_C6	Good
Q2655_C7	Good
Q2656_C1	Good
Q2656_C2	Good
Q2656_C3	Good
Q2656_C4	Good
Q2656_C5	Good
Q2656_C6	Good
Q2656_C7	Good
Q2656_C8	Good
Q2656_C9	Good
Q2656_C10	Good
Q2656_C11	Good
Q2656_C12	Good
Q2656_C13	Good
Q2656_C14	Good
Q2656_C15	Good
Q2656_C16	Good
Q2656_C17	Good
Q2656_C18	Good
Q2656_C19	Good
Q2656_C20	Good
Q2657_C1	Good
Q2658_C1	Good
Q2658_C2	Good
Q2658_C3	Good
Q2658_C4	Good
Q2658_C5	Good
Q2659_C1	Good
Q2659_C2	Good
Q2659_C3	Good
Q2659_C4	Good
Q2659_C5	Good
Q2659_C6	Good
Q2659_C7	Good
Q2659_C8	Good
Q2659_C9	Good
Q2659_C10	Good
Q2660_C1	Good
Q2660_C2	Good
Q2660_C3	Good
Q2661_C1	Good
Q2661_C2	Good
Q2661_C3	Good
Q2661_C4	Good
Q2662_C1	Good
Q2662_C2	Good
Q2662_C3	Good
Q2662_C4	Good
Q2663_C1	Good
Q2663_C2	Good
Q2663_C3	Good
Q2663_C4	Good
Q2663_C5	Good
Q2663_C6	Good
Q2664_C1	Good
Q2664_C2	Good
Q2664_C3	Good
Q2664_C4	Good
Q2664_C5	Good
Q2664_C6	Good
Q2664_C7	Good
Q2664_C8	Good
Q2664_C9	Good
Q2664_C10	Good
Q2664_C11	Good
Q2664_C12	Good
Q2664_C13	Good
Q2664_C14	Good
Q2664_C15	Good
Q2664_C16	Good
Q2664_C17	Good
Q2664_C18	Good
Q2664_C19	Good
Q2664_C20	Good
Q2664_C21	Good
Q2664_C22	Good
Q2664_C23	Good
Q2664_C24	Good
Q2664_C25	Good
Q2664_C26	Good
Q2664_C27	Good
Q2664_C28	Good
Q2664_C29	Good
Q2664_C30	Good
Q2664_C31	Good
Q2664_C32	Good
Q2665_C1	Good
Q2666_C1	Good
Q2666_C2	Good
Q2666_C3	Good
Q2666_C4	Good
Q2666_C5	Good
Q2666_C6	Good
Q2667_C1	Good
Q2667_C2	Good
Q2667_C3	Good
Q2667_C4	Good
Q2667_C5	Good
Q2667_C6	Good
Q2668_C1	Good
Q2668_C2	Good
Q2668_C3	Good
Q2669_C1	Good
Q2669_C2	Good
Q2669_C3	Good
Q2669_C4	Good
Q2669_C5	Good
Q2669_C6	Good
Q2669_C7	Good
Q2669_C8	Good
Q2670_C1	Good
Q2670_C2	Good
Q2670_C3	Good
Q2671_C1	Good
Q2671_C2	Good
Q2672_C1	Good
Q2672_C2	Good
Q2672_C3	Good
Q2672_C4	Good
Q2672_C5	Good
Q2672_C6	Good
Q2672_C7	Good
Q2673_C1	Good
Q2674_C1	Good
Q2674_C2	Good
Q2674_C3	Good
Q2674_C4	Good
Q2675_C1	Good
Q2675_C2	Good
Q2675_C3	Good
Q2675_C4	Good
Q2675_C5	Good
Q2675_C6	Good
Q2675_C7	Good
Q2675_C8	Good
Q2675_C9	Good
Q2676_C1	Good
Q2677_C1	Good
Q2677_C2	Good
Q2677_C3	Good
Q2677_C4	Good
Q2677_C5	Good
Q2678_C1	Good
Q2678_C2	Good
Q2678_C3	Good
Q2678_C4	Good
Q2678_C5	Good
Q2679_C1	Good
Q2679_C2	Good
Q2679_C3	Good
Q2679_C4	Good
Q2680_C1	Good
Q2680_C2	Good
Q2680_C3	Good
Q2680_C4	Good
Q2681_C1	Good
Q2681_C2	Good
Q2681_C3	Good
Q2681_C4	Good
Q2682_C1	Good
Q2683_C1	Good
Q2683_C2	Good
Q2683_C3	Good
Q2683_C4	Good
Q2683_C5	Good
Q2684_C1	Good
Q2684_C2	Good
Q2684_C3	Good
Q2684_C4	Good
Q2684_C5	Good
Q2684_C6	Good
Q2684_C7	Good
Q2685_C1	Good
Q2685_C2	Good
Q2685_C3	Good
Q2686_C1	Good
Q2687_C1	Good
Q2687_C2	Good
Q2687_C3	Good
Q2688_C1	Good
Q2688_C2	Good
Q2688_C3	Good
Q2688_C4	Good
Q2688_C5	Good
Q2689_C1	Good
Q2689_C2	Good
Q2689_C3	Good
Q2689_C4	Good
Q2689_C5	Good
Q2689_C6	Good
Q2689_C7	Good
Q2689_C8	Good
Q2689_C9	Good
Q2689_C10	Good
Q2689_C11	Good
Q2689_C12	Good
Q2689_C13	Good
Q2689_C14	Good
Q2690_C1	Good
Q2690_C2	Good
Q2690_C3	Good
Q2690_C4	Good
Q2690_C5	Good
Q2690_C6	Good
Q2691_C1	Good
Q2691_C2	Good
Q2691_C3	Good
Q2692_C1	Good
Q2692_C2	Good
Q2692_C3	Good
Q2692_C4	Good
Q2693_C1	Good
Q2693_C2	Good
Q2693_C3	Good
Q2693_C4	Good
Q2693_C5	Good
Q2693_C6	Good
Q2693_C7	Good
Q2693_C8	Good
Q2693_C9	Good
Q2693_C10	Good
Q2693_C11	Good
Q2693_C12	Good
Q2693_C13	Good
Q2693_C14	Good
Q2693_C15	Good
Q2693_C16	Good
Q2693_C17	Good
Q2693_C18	Good
Q2693_C19	Good
Q2693_C20	Good
Q2694_C1	Good
Q2694_C2	Good
Q2694_C3	Good
Q2695_C1	Good
Q2695_C2	Good
Q2695_C3	Good
Q2695_C4	Good
Q2695_C5	Good
Q2696_C1	Good
Q2696_C2	Good
Q2696_C3	Good
Q2696_C4	Good
Q2697_C1	Good
Q2697_C2	Good
Q2697_C3	Good
Q2698_C1	Good
Q2698_C2	Good
Q2698_C3	Good
Q2699_C1	Good
Q2699_C2	Good
Q2699_C3	Good
Q2699_C4	Good
Q2699_C5	Good
Q2699_C6	Good
Q2700_C1	Good
Q2700_C2	Good
Q2700_C3	Good
Q2700_C4	Good
Q2700_C5	Good
Q2700_C6	Good
Q2700_C7	Good
Q2700_C8	Good
Q2700_C9	Good
Q2700_C10	Good
Q2700_C11	Good
Q2700_C12	Good
Q2700_C13	Good
Q2700_C14	Good
Q2700_C15	Good
Q2700_C16	Good
Q2701_C1	Good
Q2701_C2	Good
Q2702_C1	Good
Q2703_C1	Good
Q2703_C2	Good
Q2704_C1	Good
Q2704_C2	Good
Q2704_C3	Good
Q2704_C4	Good
Q2705_C1	Good
Q2705_C2	Good
Q2705_C3	Good
Q2706_C1	Good
Q2706_C2	Good
Q2707_C1	Good
Q2707_C2	Good
Q2707_C3	Good
Q2708_C1	Good
Q2708_C2	Good
Q2708_C3	Good
Q2708_C4	Good
Q2708_C5	Good
Q2708_C6	Good
Q2708_C7	Good
Q2708_C8	Good
Q2708_C9	Good
Q2708_C10	Good
Q2708_C11	Good
Q2708_C12	Good
Q2708_C13	Good
Q2708_C14	Good
Q2708_C15	Good
Q2708_C16	Good
Q2708_C17	Good
Q2709_C1	Good
Q2709_C2	Good
Q2710_C1	Good
Q2710_C2	Good
Q2710_C3	Good
Q2710_C4	Good
Q2710_C5	Good
Q2711_C1	Good
Q2711_C2	Good
Q2711_C3	Good
Q2711_C4	Good
Q2712_C1	Good
Q2712_C2	Good
Q2713_C1	Good
Q2713_C2	Good
Q2714_C1	Good
Q2714_C2	Good
Q2714_C3	Good
Q2714_C4	Good
Q2715_C1	Good
Q2715_C2	Good
Q2715_C3	Good
Q2715_C4	Good
Q2715_C5	Good
Q2716_C1	Good
Q2716_C2	Good
Q2716_C3	Good
Q2716_C4	Good
Q2716_C5	Good
Q2717_C1	Good
Q2717_C2	Good
Q2717_C3	Good
Q2717_C4	Good
Q2717_C5	Good
Q2717_C6	Good
Q2717_C7	Good
Q2717_C8	Good
Q2717_C9	Good
Q2717_C10	Good
Q2718_C1	Good
Q2718_C2	Good
Q2718_C3	Good
Q2718_C4	Good
Q2718_C5	Good
Q2718_C6	Good
Q2718_C7	Good
Q2718_C8	Good
Q2719_C1	Good
Q2719_C2	Good
Q2719_C3	Good
Q2719_C4	Good
Q2719_C5	Good
Q2719_C6	Good
Q2719_C7	Good
Q2720_C1	Good
Q2720_C2	Good
Q2720_C3	Good
Q2721_C1	Good
Q2721_C2	Good
Q2721_C3	Good
Q2721_C4	Good
Q2721_C5	Good
Q2721_C6	Good
Q2722_C1	Good
Q2722_C2	Good
Q2722_C3	Good
Q2722_C4	Good
Q2722_C5	Good
Q2723_C1	Good
Q2723_C2	Good
Q2723_C3	Good
Q2723_C4	Good
Q2724_C1	Good
Q2724_C2	Good
Q2724_C3	Good
Q2724_C4	Good
Q2725_C1	Good
Q2726_C1	Good
Q2726_C2	Good
Q2726_C3	Good
Q2726_C4	Good
Q2727_C1	Good
Q2727_C2	Good
Q2727_C3	Good
Q2728_C1	Good
Q2728_C2	Good
Q2728_C3	Good
Q2728_C4	Good
Q2729_C1	Good
Q2730_C1	Good
Q2730_C2	Good
Q2730_C3	Good
Q2730_C4	Good
Q2730_C5	Good
Q2730_C6	Good
Q2731_C1	Good
Q2731_C2	Good
Q2731_C3	Good
Q2731_C4	Good
Q2732_C1	Good
Q2732_C2	Good
Q2732_C3	Good
Q2732_C4	Good
Q2732_C5	Good
Q2733_C1	Good
Q2734_C1	Good
Q2734_C2	Good
Q2734_C3	Good
Q2734_C4	Good
Q2734_C5	Good
Q2734_C6	Good
Q2734_C7	Good
Q2734_C8	Good
Q2734_C9	Good
Q2734_C10	Good
Q2734_C11	Good
Q2734_C12	Good
Q2734_C13	Good
Q2734_C14	Good
Q2734_C15	Good
Q2734_C16	Good
Q2734_C17	Good
Q2734_C18	Good
Q2735_C1	Good
Q2735_C2	Good
Q2735_C3	Good
Q2735_C4	Good
Q2735_C5	Good
Q2736_C1	Good
Q2736_C2	Good
Q2736_C3	Good
Q2737_C1	Good
Q2737_C2	Good
Q2737_C3	Good
Q2737_C4	Good
Q2738_C1	Good
Q2738_C2	Good
Q2738_C3	Good
Q2738_C4	Good
Q2738_C5	Good
Q2738_C6	Good
Q2738_C7	Good
Q2738_C8	Good
Q2738_C9	Good
Q2738_C10	Good
Q2738_C11	Good
Q2739_C1	Good
Q2739_C2	Good
Q2739_C3	Good
Q2739_C4	Good
Q2739_C5	Good
Q2739_C6	Good
Q2739_C7	Good
Q2739_C8	Good
Q2740_C1	Good
Q2740_C2	Good
Q2740_C3	Good
Q2740_C4	Good
Q2741_C1	Good
Q2741_C2	Good
Q2741_C3	Good
Q2741_C4	Good
Q2742_C1	Good
Q2742_C2	Good
Q2742_C3	Good
Q2743_C1	Good
Q2743_C2	Good
Q2743_C3	Good
Q2743_C4	Good
Q2743_C5	Good
Q2743_C6	Good
Q2743_C7	Good
Q2743_C8	Good
Q2744_C1	Good
Q2744_C2	Good
Q2744_C3	Good
Q2744_C4	Good
Q2744_C5	Good
Q2744_C6	Good
Q2744_C7	Good
Q2744_C8	Good
Q2744_C9	Good
Q2744_C10	Good
Q2745_C1	Good
Q2745_C2	Good
Q2745_C3	Good
Q2745_C4	Good
Q2745_C5	Good
Q2745_C6	Good
Q2745_C7	Good
Q2745_C8	Good
Q2745_C9	Good
Q2746_C1	Good
Q2746_C2	Good
Q2746_C3	Good
Q2746_C4	Good
Q2746_C5	Good
Q2746_C6	Good
Q2746_C7	Good
Q2746_C8	Good
Q2746_C9	Good
Q2746_C10	Good
Q2747_C1	Good
Q2747_C2	Good
Q2747_C3	Good
Q2748_C1	Good
Q2748_C2	Good
Q2748_C3	Good
Q2748_C4	Good
Q2749_C1	Good
Q2749_C2	Good
Q2749_C3	Good
Q2749_C4	Good
Q2750_C1	Good
Q2751_C1	Good
Q2751_C2	Good
Q2752_C1	Good
Q2752_C2	Good
Q2752_C3	Good
Q2752_C4	Good
Q2752_C5	Good
Q2752_C6	Good
Q2752_C7	Good
Q2752_C8	Good
Q2752_C9	Good
Q2752_C10	Good
Q2752_C11	Good
Q2752_C12	Good
Q2752_C13	Good
Q2752_C14	Good
Q2752_C15	Good
Q2752_C16	Good
Q2752_C17	Good
Q2752_C18	Good
Q2752_C19	Good
Q2752_C20	Good
Q2752_C21	Good
Q2752_C22	Good
Q2752_C23	Good
Q2752_C24	Good
Q2752_C25	Good
Q2752_C26	Good
Q2752_C27	Good
Q2752_C28	Good
Q2752_C29	Good
Q2752_C30	Good
Q2753_C1	Good
Q2753_C2	Good
Q2753_C3	Good
Q2753_C4	Good
Q2753_C5	Good
Q2754_C1	Good
Q2755_C1	Good
Q2755_C2	Good
Q2755_C3	Good
Q2755_C4	Good
Q2755_C5	Good
Q2755_C6	Good
Q2755_C7	Good
Q2756_C1	Good
Q2756_C2	Good
Q2756_C3	Good
Q2756_C4	Good
Q2756_C5	Good
Q2756_C6	Good
Q2757_C1	Good
Q2757_C2	Good
Q2757_C3	Good
Q2757_C4	Good
Q2758_C1	Good
Q2758_C2	Good
Q2758_C3	Good
Q2759_C1	Good
Q2759_C2	Good
Q2759_C3	Good
Q2759_C4	Good
Q2760_C1	Good
Q2760_C2	Good
Q2760_C3	Good
Q2760_C4	Good
Q2760_C5	Good
Q2760_C6	Good
Q2760_C7	Good
Q2760_C8	Good
Q2760_C9	Good
Q2760_C10	Good
Q2760_C11	Good
Q2760_C12	Good
Q2760_C13	Good
Q2761_C1	Good
Q2761_C2	Good
Q2761_C3	Good
Q2762_C1	Good
Q2762_C2	Good
Q2762_C3	Good
Q2762_C4	Good
Q2763_C1	Good
Q2763_C2	Good
Q2763_C3	Good
Q2763_C4	Good
Q2763_C5	Good
Q2764_C1	Good
Q2764_C2	Good
Q2764_C3	Good
Q2765_C1	Good
Q2765_C2	Good
Q2765_C3	Good
Q2765_C4	Good
Q2766_C1	Good
Q2766_C2	Good
Q2766_C3	Good
Q2767_C1	Good
Q2767_C2	Good
Q2767_C3	Good
Q2768_C1	Good
Q2768_C2	Good
Q2768_C3	Good
Q2769_C1	Good
Q2770_C1	Good
Q2770_C2	Good
Q2770_C3	Good
Q2770_C4	Good
Q2770_C5	Good
Q2771_C1	Good
Q2771_C2	Good
Q2771_C3	Good
Q2771_C4	Good
Q2771_C5	Good
Q2771_C6	Good
Q2771_C7	Good
Q2771_C8	Good
Q2771_C9	Good
Q2771_C10	Good
Q2771_C11	Good
Q2771_C12	Good
Q2771_C13	Good
Q2771_C14	Good
Q2771_C15	Good
Q2771_C16	Good
Q2771_C17	Good
Q2771_C18	Good
Q2772_C1	Good
Q2772_C2	Good
Q2772_C3	Good
Q2772_C4	Good
Q2772_C5	Good
Q2772_C6	Good
Q2772_C7	Good
Q2772_C8	Good
Q2772_C9	Good
Q2772_C10	Good
Q2772_C11	Good
Q2772_C12	Good
Q2772_C13	Good
Q2772_C14	Good
Q2772_C15	Good
Q2772_C16	Good
Q2772_C17	Good
Q2772_C18	Good
Q2772_C19	Good
Q2772_C20	Good
Q2772_C21	Good
Q2772_C22	Good
Q2773_C1	Good
Q2774_C1	Good
Q2774_C2	Good
Q2774_C3	Good
Q2774_C4	Good
Q2774_C5	Good
Q2774_C6	Good
Q2775_C1	Good
Q2775_C2	Good
Q2775_C3	Good
Q2775_C4	Good
Q2775_C5	Good
Q2775_C6	Good
Q2776_C1	Good
Q2776_C2	Good
Q2776_C3	Good
Q2776_C4	Good
Q2776_C5	Good
Q2776_C6	Good
Q2776_C7	Good
Q2776_C8	Good
Q2776_C9	Good
Q2776_C10	Good
Q2776_C11	Good
Q2776_C12	Good
Q2776_C13	Good
Q2776_C14	Good
Q2776_C15	Good
Q2776_C16	Good
Q2776_C17	Good
Q2777_C1	Good
Q2777_C2	Good
Q2777_C3	Good
Q2777_C4	Good
Q2778_C1	Good
Q2778_C2	Good
Q2778_C3	Good
Q2778_C4	Good
Q2778_C5	Good
Q2779_C1	Good
Q2779_C2	Good
Q2779_C3	Good
Q2779_C4	Good
Q2779_C5	Good
Q2779_C6	Good
Q2779_C7	Good
Q2779_C8	Good
Q2779_C9	Good
Q2779_C10	Good
Q2779_C11	Good
Q2779_C12	Good
Q2779_C13	Good
Q2779_C14	Good
Q2779_C15	Good
Q2779_C16	Good
Q2779_C17	Good
Q2779_C18	Good
Q2779_C19	Good
Q2779_C20	Good
Q2779_C21	Good
Q2779_C22	Good
Q2779_C23	Good
Q2780_C1	Good
Q2781_C1	Good
Q2781_C2	Good
Q2781_C3	Good
Q2781_C4	Good
Q2782_C1	Good
Q2782_C2	Good
Q2783_C1	Good
Q2784_C1	Good
Q2784_C2	Good
Q2785_C1	Good
Q2786_C1	Good
Q2786_C2	Good
Q2786_C3	Good
Q2786_C4	Good
Q2787_C1	Good
Q2787_C2	Good
Q2787_C3	Good
Q2787_C4	Good
Q2788_C1	Good
Q2788_C2	Good
Q2788_C3	Good
Q2788_C4	Good
Q2789_C1	Good
Q2789_C2	Good
Q2789_C3	Good
Q2789_C4	Good
Q2790_C1	Good
Q2790_C2	Good
Q2790_C3	Good
Q2791_C1	Good
Q2791_C2	Good
Q2791_C3	Good
Q2791_C4	Good
Q2791_C5	Good
Q2791_C6	Good
Q2792_C1	Good
Q2792_C2	Good
Q2792_C3	Good
Q2792_C4	Good
Q2793_C1	Good
Q2793_C2	Good
Q2793_C3	Good
Q2793_C4	Good
Q2793_C5	Good
Q2793_C6	Good
Q2793_C7	Good
Q2793_C8	Good
Q2793_C9	Good
Q2793_C10	Good
Q2793_C11	Good
Q2793_C12	Good
Q2793_C13	Good
Q2793_C14	Good
Q2793_C15	Good
Q2794_C1	Good
Q2794_C2	Good
Q2794_C3	Good
Q2795_C1	Good
Q2796_C1	Good
Q2796_C2	Good
Q2796_C3	Good
Q2796_C4	Good
Q2797_C1	Good
Q2797_C2	Good
Q2797_C3	Good
Q2797_C4	Good
Q2797_C5	Good
Q2797_C6	Good
Q2797_C7	Good
Q2797_C8	Good
Q2797_C9	Good
Q2797_C10	Good
Q2797_C11	Good
Q2797_C12	Good
Q2797_C13	Good
Q2797_C14	Good
Q2797_C15	Good
Q2797_C16	Good
Q2797_C17	Good
Q2797_C18	Good
Q2797_C19	Good
Q2797_C20	Good
Q2797_C21	Good
Q2797_C22	Good
Q2797_C23	Good
Q2798_C1	Good
Q2798_C2	Good
Q2799_C1	Good
Q2799_C2	Good
Q2799_C3	Good
Q2799_C4	Good
Q2799_C5	Good
Q2799_C6	Good
Q2800_C1	Good
Q2801_C1	Good
Q2801_C2	Good
Q2801_C3	Good
Q2801_C4	Good
Q2801_C5	Good
Q2801_C6	Good
Q2801_C7	Good
Q2801_C8	Good
Q2801_C9	Good
Q2801_C10	Good
Q2802_C1	Good
Q2802_C2	Good
Q2802_C3	Good
Q2802_C4	Good
Q2802_C5	Good
Q2802_C6	Good
Q2802_C7	Good
Q2802_C8	Good
Q2802_C9	Good
Q2802_C10	Good
Q2802_C11	Good
Q2802_C12	Good
Q2802_C13	Good
Q2802_C14	Good
Q2803_C1	Good
Q2803_C2	Good
Q2804_C1	Good
Q2804_C2	Good
Q2804_C3	Good
Q2804_C4	Good
Q2804_C5	Good
Q2804_C6	Good
Q2804_C7	Good
Q2805_C1	Good
Q2806_C1	Good
Q2806_C2	Good
Q2806_C3	Good
Q2806_C4	Good
Q2806_C5	Good
Q2806_C6	Good
Q2807_C1	Good
Q2807_C2	Good
Q2807_C3	Good
Q2807_C4	Good
Q2808_C1	Good
Q2808_C2	Good
Q2808_C3	Good
Q2808_C4	Good
Q2808_C5	Good
Q2809_C1	Good
Q2809_C2	Good
Q2809_C3	Good
Q2809_C4	Good
Q2809_C5	Good
Q2809_C6	Good
Q2809_C7	Good
Q2809_C8	Good
Q2809_C9	Good
Q2809_C10	Good
Q2809_C11	Good
Q2809_C12	Good
Q2809_C13	Good
Q2809_C14	Good
Q2809_C15	Good
Q2809_C16	Good
Q2809_C17	Good
Q2809_C18	Good
Q2809_C19	Good
Q2809_C20	Good
Q2809_C21	Good
Q2809_C22	Good
Q2809_C23	Good
Q2809_C24	Good
Q2810_C1	Good
Q2811_C1	Good
Q2811_C2	Good
Q2811_C3	Good
Q2811_C4	Good
Q2811_C5	Good
Q2811_C6	Good
Q2811_C7	Good
Q2811_C8	Good
Q2811_C9	Good
Q2811_C10	Good
Q2812_C1	Good
Q2812_C2	Good
Q2812_C3	Good
Q2812_C4	Good
Q2812_C5	Good
Q2812_C6	Good
Q2813_C1	Good
Q2813_C2	Good
Q2813_C3	Good
Q2813_C4	Good
Q2814_C1	Good
Q2814_C2	Good
Q2814_C3	Good
Q2814_C4	Good
Q2814_C5	Good
Q2814_C6	Good
Q2814_C7	Good
Q2815_C1	Good
Q2815_C2	Good
Q2815_C3	Good
Q2815_C4	Good
Q2816_C1	Good
Q2816_C2	Good
Q2816_C3	Good
Q2817_C1	Good
Q2817_C2	Good
Q2817_C3	Good
Q2817_C4	Good
Q2817_C5	Good
Q2817_C6	Good
Q2817_C7	Good
Q2818_C1	Good
Q2818_C2	Good
Q2818_C3	Good
Q2818_C4	Good
Q2818_C5	Good
Q2818_C6	Good
Q2819_C1	Good
Q2819_C2	Good
Q2819_C3	Good
Q2819_C4	Good
Q2819_C5	Good
Q2819_C6	Good
Q2819_C7	Good
Q2819_C8	Good
Q2819_C9	Good
Q2820_C1	Good
Q2820_C2	Good
Q2820_C3	Good
Q2821_C1	Good
Q2822_C1	Good
Q2822_C2	Good
Q2822_C3	Good
Q2822_C4	Good
Q2823_C1	Good
Q2823_C2	Good
Q2823_C3	Good
Q2823_C4	Good
Q2823_C5	Good
Q2824_C1	Good
Q2824_C2	Good
Q2824_C3	Good
Q2824_C4	Good
Q2825_C1	Good
Q2825_C2	Good
Q2825_C3	Good
Q2826_C1	Good
Q2827_C1	Good
Q2827_C2	Good
Q2827_C3	Good
Q2828_C1	Good
Q2828_C2	Good
Q2828_C3	Good
Q2828_C4	Good
Q2829_C1	Good
Q2829_C2	Good
Q2829_C3	Good
Q2829_C4	Good
Q2829_C5	Good
Q2829_C6	Good
Q2829_C7	Good
Q2829_C8	Good
Q2829_C9	Good
Q2830_C1	Good
Q2831_C1	Good
Q2831_C2	Good
Q2831_C3	Good
Q2831_C4	Good
Q2832_C1	Good
Q2832_C2	Good
Q2832_C3	Good
Q2833_C1	Good
Q2833_C2	Good
Q2833_C3	Good
Q2833_C4	Good
Q2833_C5	Good
Q2834_C1	Good
Q2834_C2	Good
Q2834_C3	Good
Q2834_C4	Good
Q2834_C5	Good
Q2835_C1	Good
Q2835_C2	Good
Q2835_C3	Good
Q2835_C4	Good
Q2835_C5	Good
Q2836_C1	Good
Q2836_C2	Good
Q2836_C3	Good
Q2836_C4	Good
Q2836_C5	Good
Q2836_C6	Good
Q2836_C7	Good
Q2837_C1	Good
Q2838_C1	Good
Q2838_C2	Good
Q2838_C3	Good
Q2838_C4	Good
Q2838_C5	Good
Q2839_C1	Good
Q2839_C2	Good
Q2839_C3	Good
Q2840_C1	Good
Q2840_C2	Good
Q2840_C3	Good
Q2840_C4	Good
Q2841_C1	Good
Q2841_C2	Good
Q2841_C3	Good
Q2841_C4	Good
Q2842_C1	Good
Q2842_C2	Good
Q2842_C3	Good
Q2842_C4	Good
Q2842_C5	Good
Q2843_C1	Good
Q2843_C2	Good
Q2843_C3	Good
Q2843_C4	Good
Q2843_C5	Good
Q2843_C6	Good
Q2843_C7	Good
Q2843_C8	Good
Q2843_C9	Good
Q2844_C1	Good
Q2844_C2	Good
Q2844_C3	Good
Q2844_C4	Good
Q2844_C5	Good
Q2845_C1	Good
Q2845_C2	Good
Q2845_C3	Good
Q2846_C1	Good
Q2846_C2	Good
Q2846_C3	Good
Q2846_C4	Good
Q2847_C1	Good
Q2847_C2	Good
Q2848_C1	Good
Q2848_C2	Good
Q2848_C3	Good
Q2848_C4	Good
Q2848_C5	Good
Q2848_C6	Good
Q2849_C1	Good
Q2849_C2	Good
Q2849_C3	Good
Q2849_C4	Good
Q2849_C5	Good
Q2849_C6	Good
Q2849_C7	Good
Q2849_C8	Good
Q2849_C9	Good
Q2849_C10	Good
Q2849_C11	Good
Q2849_C12	Good
Q2849_C13	Good
Q2849_C14	Good
Q2849_C15	Good
Q2849_C16	Good
Q2849_C17	Good
Q2850_C1	Good
Q2850_C2	Good
Q2850_C3	Good
Q2850_C4	Good
Q2850_C5	Good
Q2850_C6	Good
Q2851_C1	Good
Q2851_C2	Good
Q2851_C3	Good
Q2852_C1	Good
Q2853_C1	Good
Q2854_C1	Good
Q2854_C2	Good
Q2855_C1	Good
Q2855_C2	Good
Q2855_C3	Good
Q2855_C4	Good
Q2855_C5	Good
Q2856_C1	Good
Q2856_C2	Good
Q2856_C3	Good
Q2856_C4	Good
Q2857_C1	Good
Q2857_C2	Good
Q2857_C3	Good
Q2857_C4	Good
Q2857_C5	Good
Q2857_C6	Good
Q2857_C7	Good
Q2858_C1	Good
Q2858_C2	Good
Q2858_C3	Good
Q2858_C4	Good
Q2858_C5	Good
Q2858_C6	Good
Q2858_C7	Good
Q2858_C8	Good
Q2858_C9	Good
Q2859_C1	Good
Q2859_C2	Good
Q2859_C3	Good
Q2859_C4	Good
Q2860_C1	Good
Q2860_C2	Good
Q2860_C3	Good
Q2860_C4	Good
Q2861_C1	Good
Q2861_C2	Good
Q2861_C3	Good
Q2861_C4	Good
Q2861_C5	Good
Q2861_C6	Good
Q2862_C1	Good
Q2862_C2	Good
Q2862_C3	Good
Q2862_C4	Good
Q2862_C5	Good
Q2862_C6	Good
Q2862_C7	Good
Q2863_C1	Good
Q2863_C2	Good
Q2863_C3	Good
Q2863_C4	Good
Q2863_C5	Good
Q2864_C1	Good
Q2864_C2	Good
Q2864_C3	Good
Q2864_C4	Good
Q2864_C5	Good
Q2864_C6	Good
Q2864_C7	Good
Q2864_C8	Good
Q2864_C9	Good
Q2864_C10	Good
Q2864_C11	Good
Q2864_C12	Good
Q2865_C1	Good
Q2865_C2	Good
Q2865_C3	Good
Q2865_C4	Good
Q2865_C5	Good
Q2866_C1	Good
Q2867_C1	Good
Q2867_C2	Good
Q2867_C3	Good
Q2867_C4	Good
Q2868_C1	Good
Q2868_C2	Good
Q2868_C3	Good
Q2868_C4	Good
Q2868_C5	Good
Q2868_C6	Good
Q2869_C1	Good
Q2869_C2	Good
Q2869_C3	Good
Q2869_C4	Good
Q2870_C1	Good
Q2870_C2	Good
Q2870_C3	Good
Q2870_C4	Good
Q2870_C5	Good
Q2870_C6	Good
Q2870_C7	Good
Q2870_C8	Good
Q2870_C9	Good
Q2871_C1	Good
Q2871_C2	Good
Q2871_C3	Good
Q2871_C4	Good
Q2871_C5	Good
Q2871_C6	Good
Q2872_C1	Good
Q2872_C2	Good
Q2872_C3	Good
Q2872_C4	Good
Q2872_C5	Good
Q2872_C6	Good
Q2872_C7	Good
Q2873_C1	Good
Q2873_C2	Good
Q2873_C3	Good
Q2873_C4	Good
Q2874_C1	Good
Q2874_C2	Good
Q2874_C3	Good
Q2874_C4	Good
Q2874_C5	Good
Q2875_C1	Good
Q2875_C2	Good
Q2875_C3	Good
Q2875_C4	Good
Q2875_C5	Good
Q2875_C6	Good
Q2875_C7	Good
Q2875_C8	Good
Q2875_C9	Good
Q2875_C10	Good
Q2875_C11	Good
Q2875_C12	Good
Q2875_C13	Good
Q2875_C14	Good
Q2875_C15	Good
Q2875_C16	Good
Q2875_C17	Good
Q2875_C18	Good
Q2875_C19	Good
Q2875_C20	Good
Q2875_C21	Good
Q2875_C22	Good
Q2875_C23	Good
Q2875_C24	Good
Q2875_C25	Good
Q2876_C1	Good
Q2876_C2	Good
Q2876_C3	Good
Q2877_C1	Good
Q2877_C2	Good
Q2877_C3	Good
Q2877_C4	Good
Q2877_C5	Good
Q2877_C6	Good
Q2878_C1	Good
Q2878_C2	Good
Q2878_C3	Good
Q2879_C1	Good
Q2879_C2	Good
Q2879_C3	Good
Q2879_C4	Good
Q2879_C5	Good
Q2879_C6	Good
Q2879_C7	Good
Q2879_C8	Good
Q2879_C9	Good
Q2879_C10	Good
Q2879_C11	Good
Q2879_C12	Good
Q2879_C13	Good
Q2879_C14	Good
Q2880_C1	Good
Q2880_C2	Good
Q2880_C3	Good
Q2880_C4	Good
Q2880_C5	Good
Q2880_C6	Good
Q2880_C7	Good
Q2880_C8	Good
Q2881_C1	Good
Q2881_C2	Good
Q2881_C3	Good
Q2881_C4	Good
Q2882_C1	Good
Q2882_C2	Good
Q2882_C3	Good
Q2882_C4	Good
Q2882_C5	Good
Q2882_C6	Good
Q2882_C7	Good
Q2882_C8	Good
Q2882_C9	Good
Q2882_C10	Good
Q2883_C1	Good
Q2883_C2	Good
Q2883_C3	Good
Q2883_C4	Good
Q2883_C5	Good
Q2883_C6	Good
Q2884_C1	Good
Q2884_C2	Good
Q2884_C3	Good
Q2884_C4	Good
Q2884_C5	Good
Q2884_C6	Good
Q2884_C7	Good
Q2884_C8	Good
Q2885_C1	Good
Q2885_C2	Good
Q2885_C3	Good
Q2885_C4	Good
Q2886_C1	Good
Q2886_C2	Good
Q2886_C3	Good
Q2887_C1	Good
Q2888_C1	Good
Q2888_C2	Good
Q2888_C3	Good
Q2888_C4	Good
Q2888_C5	Good
Q2888_C6	Good
Q2888_C7	Good
Q2888_C8	Good
Q2889_C1	Good
Q2889_C2	Good
Q2889_C3	Good
Q2889_C4	Good
Q2889_C5	Good
Q2889_C6	Good
Q2889_C7	Good
Q2890_C1	Good
Q2890_C2	Good
Q2890_C3	Good
Q2890_C4	Good
Q2890_C5	Good
Q2890_C6	Good
Q2890_C7	Good
Q2890_C8	Good
Q2890_C9	Good
Q2890_C10	Good
Q2890_C11	Good
Q2890_C12	Good
Q2890_C13	Good
Q2890_C14	Good
Q2890_C15	Good
Q2890_C16	Good
Q2890_C17	Good
Q2890_C18	Good
Q2890_C19	Good
Q2890_C20	Good
Q2890_C21	Good
Q2890_C22	Good
Q2890_C23	Good
Q2890_C24	Good
Q2890_C25	Good
Q2890_C26	Good
Q2890_C27	Good
Q2890_C28	Good
Q2890_C29	Good
Q2890_C30	Good
Q2891_C1	Good
Q2891_C2	Good
Q2891_C3	Good
Q2891_C4	Good
Q2891_C5	Good
Q2891_C6	Good
Q2892_C1	Good
Q2892_C2	Good
Q2892_C3	Good
Q2892_C4	Good
Q2892_C5	Good
Q2892_C6	Good
Q2892_C7	Good
Q2892_C8	Good
Q2892_C9	Good
Q2892_C10	Good
Q2893_C1	Good
Q2893_C2	Good
Q2893_C3	Good
Q2893_C4	Good
Q2894_C1	Good
Q2894_C2	Good
Q2894_C3	Good
Q2894_C4	Good
Q2895_C1	Good
Q2895_C2	Good
Q2895_C3	Good
Q2895_C4	Good
Q2896_C1	Good
Q2896_C2	Good
Q2896_C3	Good
Q2896_C4	Good
Q2896_C5	Good
Q2896_C6	Good
Q2897_C1	Good
Q2897_C2	Good
Q2897_C3	Good
Q2897_C4	Good
Q2898_C1	Good
Q2898_C2	Good
Q2898_C3	Good
Q2899_C1	Good
Q2899_C2	Good
Q2899_C3	Good
Q2900_C1	Good
